<?xml version="1.0" standalone="no"?>
<!DOCTYPE svg PUBLIC "-//W3C//DTD SVG 1.1//EN" "http://www.w3.org/Graphics/SVG/1.1/DTD/svg11.dtd">
<svg xmlns="http://www.w3.org/2000/svg">
<metadata>Copyright (C) 2019 by original authors @ fontello.com</metadata>
<defs>
<font id="fontello" horiz-adv-x="1000" >
<font-face font-family="fontello" font-weight="400" font-stretch="normal" units-per-em="1000" ascent="850" descent="-150" />
<missing-glyph horiz-adv-x="1000" />
<glyph glyph-name="halal" unicode="&#xe800;" d="M500-150c-8 0-15 3-21 9l-129 129h-183c-16 0-29 13-29 29v183l-129 129c-12 12-12 30 0 42l129 129v183c0 16 13 29 29 29h183l129 129c6 6 13 9 21 9s15-3 21-9l129-129h183c16 0 29-13 29-29v-183l129-129c12-12 12-30 0-42l-129-129v-183c0-16-13-29-29-29h-183l-129-129c-6-6-13-9-21-9z m-303 197h165c8 0 15-4 21-9l117-117 117 117c6 5 13 9 21 9h166v165c0 8 3 15 8 21l117 117-117 117c-5 6-8 13-8 21v166h-166c-8 0-15 3-21 8l-117 117-117-117c-6-5-13-8-21-8h-165v-166c0-8-4-15-9-21l-117-117 117-117c5-6 9-13 9-21z m122 162c-22 0-48 8-67 26-18 17-44 57-14 127 6 14 23 21 38 15 15-6 22-24 16-39-8-18-15-44-2-59 10-10 27-13 32-11 47 24 29 150 20 211-3 15-4 27-5 38-2 16 10 30 26 32 16 1 30-10 32-26 1-9 3-21 5-35 12-86 34-230-52-273-8-4-18-6-29-6z m131-19c-11 0-23 8-27 19-6 15 2 32 17 38 55 21 91 91 110 215 2 14 14 24 28 25 14 0 27-9 30-23 3-14 4-31 6-52 2-32 5-72 17-102 14-35 34-40 52-40h0c4 0 12 3 21 6-13 12-25 21-30 23-15 6-23 22-18 38s22 23 37 18c28-10 70-53 82-66 6-7 9-16 8-25-1-8-7-16-14-21-13-7-56-31-86-32 0 0 0 0 0 0-35 0-81 14-106 77-3 7-5 14-7 20 0-1-1-1-1-2-26-58-62-97-108-114-4-1-7-2-11-2z m35 172c-15 0-28 11-30 27-1 16-9 33-19 43-11 11-11 30 0 41 11 12 30 12 41 0 21-19 34-49 37-79 1-16-11-30-27-32-1 0-2 0-2 0z" horiz-adv-x="1000" />

<glyph glyph-name="destination-1" unicode="&#xe801;" d="M897 464c-100 11-197 119-222 134-15 11-32 18-49 21 0 0-12 2-25 1-12-1-30-2-56-22-2-1-16-13-20-18-33-34-125-136-170-250-7-16-3-34 8-46l-53-95-76 42c-9 5-20 2-25-7l-143-253c-5-9-2-20 7-25l57-32c-9-16-6-37 7-51 17-17 44-17 61-1 16 16 17 40 4 57l78 137 54 97 68 118c15 2 28 12 34 27 19 48 49 95 78 134l13-156c2-19 9-34 21-46-35-64-130-238-164-297-15-26-6-60 21-76 9-5 21-8 31-7 18 1 35 11 44 28 32 55 115 222 151 285 29-49 79-138 142-280 9-21 29-33 50-33 8 0 15 1 23 5 28 12 40 45 28 73-74 168-129 261-159 310 12 15 19 33 17 55l-13 148c38-29 86-54 169-63 2 0 3 0 5 0 22 0 41 16 43 39 2 24-15 45-39 47z m-730-588c-9 0-16 7-16 15s7 16 16 16c9 0 16-7 16-16 0-8-7-15-16-15z" horiz-adv-x="1000" />

<glyph glyph-name="destination" unicode="&#xe802;" d="M183-83c5 0 10 2 13 6 7 9 171 214 171 310 0 102-82 184-184 184s-183-82-183-184c0-96 163-301 170-310 4-4 8-6 13-6z m0 466c83 0 150-67 150-150 0-64-98-206-150-273-51 67-150 209-150 273 0 83 68 150 150 150z m0 0m67-133c0 37-30 67-67 67s-66-30-66-67 30-67 66-67 67 30 67 67z m-100 0c0 18 15 33 33 33s34-15 34-33-15-33-34-33-33 15-33 33z m0 0m717 250c5 0 9 2 12 6 13 14 121 142 121 211 0 73-60 133-133 133s-134-60-134-133c0-69 109-197 121-211 3-4 8-6 13-6z m0 317c55 0 100-45 100-100 0-43-64-130-100-174-37 44-100 131-100 174 0 55 45 100 100 100z m0 0m50-84c0 28-23 50-50 50s-50-22-50-50 22-50 50-50 50 23 50 50z m-67 0c0 10 8 17 17 17s16-7 16-17-7-16-16-16-17 7-17 16z m0 0m0-300h17c9 0 16 8 16 17s-7 17-16 17h-17c-9 0-17-8-17-17s8-17 17-17z m0 0m-217-100h34c9 0 17 8 17 17s-8 17-17 17h-34c-4 0-9-2-12-5-3-3-4-8-4-12 0-9 7-17 16-17z m0 0m187 17c0-9 8-17 17-17h34c9 0 17 8 17 17s-8 17-17 17h-34c-9 0-17-8-17-17z m0 0m-72 83h34c9 0 17 8 17 17s-8 17-17 17h-34c-9 0-16-8-16-17s7-17 16-17z m0 0m-444-550h-34c-10 0-17-7-17-16s7-17 17-17h34c9 0 16 7 16 17s-7 16-16 16z m0 0m280 490c2 0 3 0 4 0 9 2 15 11 13 20-1 2-1 5-1 7 0 5 1 11 4 15 4 8 1 18-8 23-8 4-18 1-22-8-7-13-9-29-6-44 2-7 9-13 16-13z m0 0m151-40h34c9 0 17 8 17 17s-8 17-17 17h-34c-9 0-17-8-17-17s8-17 17-17z m0 0m-89 100h34c9 0 17 8 17 17s-8 17-17 17h-34c-9 0-16-8-16-17s7-17 16-17z m0 0m-164-289c1-1 2-1 4-1 7 0 14 5 16 13 2 8 6 16 12 23 4 5 5 11 3 17-2 6-7 10-13 11-6 1-12-2-16-6-9-11-15-24-19-37-1-4 0-9 2-13 3-3 6-6 11-7z m0 0m329-260c-4 0-7-1-11-1h-21c-9 0-17-7-17-16s8-17 17-17h21c5 0 10 0 15 1 9 1 16 9 14 19-1 9-9 15-18 14z m0 0m23 194c-11 4-22 5-34 5h-4c-10 0-17-7-17-16s7-17 17-17h4c8 0 16-1 24-4 2 0 4 0 5 0 8 0 15 6 17 14 1 8-4 16-12 18z m0 0m-35 122c9 0 16 8 16 17s-7 16-16 16h-34c-10 0-17-7-17-16s7-17 17-17z m0 0m99-259c-8 4-18 0-22-9-4-8-9-16-16-23-4-4-6-10-4-16 2-6 6-10 12-12 6-1 12 1 16 5 10 10 17 21 22 33 4 8 1 18-8 22z m0 0m87 339c-4 2-8 1-12-1-4-2-7-6-8-10-3-8-7-15-13-21-7-7-7-17-1-24 7-7 17-7 24 0 10 10 18 22 22 36 1 4 0 9-2 12-2 4-5 7-10 8z m0 0m-19 31c7 0 13 4 16 10 2 6 1 13-3 18-10 11-22 19-35 23-9 3-18-1-21-10-3-9 1-18 10-21 8-3 15-8 21-14 3-4 8-6 12-6z m0 0m-238-228h-34c-9 0-17-7-17-16s8-17 17-17h34c9 0 16 8 16 17s-7 16-16 16z m0 0m172 150h-34c-9 0-16-7-16-16s7-17 16-17h34c10 0 17 8 17 17s-7 16-17 16z m0 0m-494-350h-34c-10 0-17-7-17-16s7-17 17-17h34c9 0 16 7 16 17s-7 16-16 16z m0 0m491 149c-6 8-16 10-24 5-7-6-9-16-4-24 5-7 9-16 12-25 1-6 5-11 11-13 6-1 13 0 17 5 4 4 6 10 4 16-3 13-9 25-16 36z m0 0m-364 57c-8 4-15 10-21 17-5 7-16 9-23 3-7-6-9-16-3-24 8-10 19-19 32-26 8-3 18 0 22 8 4 8 1 18-7 22z m0 0m-26-206h-34c-9 0-16-7-16-16s7-17 16-17h34c10 0 17 7 17 17s-7 16-17 16z m0 0m204 0h-34c-9 0-16-7-16-16s7-17 16-17h34c9 0 17 7 17 17s-8 16-17 16z m0 0m-116 317c9 0 16 8 16 17s-7 16-16 16h-34c-9 0-17-7-17-16s8-17 17-17z m0 0m102 0c9 0 16 8 16 17s-7 16-16 16h-34c-10 0-17-7-17-16s7-17 17-17z m0 0m-71-117h-34c-9 0-17-7-17-16s8-17 17-17h34c9 0 17 8 17 17s-8 16-17 16z m0 0m-17-200h-34c-9 0-16-7-16-16s7-17 16-17h34c9 0 17 7 17 17s-8 16-17 16z m0 0m-409 0h-17c-9 0-16-7-16-16s7-17 16-17h17c9 0 17 7 17 17s-8 16-17 16z m0 0" horiz-adv-x="1000" />

<glyph glyph-name="culinery" unicode="&#xe803;" d="M889 766c-7 7-19 7-26 0l-186-186c-7-7-7-19 0-26 4-3 8-5 13-5 4 0 9 2 12 5l187 187c7 7 7 18 0 25z m50-50c-7 7-18 7-25 0l-186-186c-7-7-7-18 0-25 3-4 8-6 12-6 5 0 10 2 13 6l186 186c7 7 7 18 0 25z m-175-314l231 231c7 7 7 18 0 25-7 7-19 7-26 0l-231-231c-28-28-72-36-108-18-7 3-16 1-21-5l-79-88c0 0 0 0 0 0 0 0 0 0 0 0l-339-383c0 0-1 0-1 0-1-2-2-3-3-4-22-22-59-22-81 0-11 11-17 25-17 41s6 30 17 41c1 1 2 2 3 3 0 0 1 0 1 0l212 188c7 7 8 18 1 26-6 7-18 8-25 1l-212-188c-2-2-4-3-6-5-17-18-27-41-27-66 0-25 10-49 27-66 19-18 43-28 66-28 24 0 48 10 66 28 2 2 4 3 6 5l258 292 259-292c2-2 3-3 5-5 18-18 42-28 66-28 24 0 48 10 66 28 36 36 36 95 0 132-2 2-3 3-5 5l-298 264 58 66c47-17 101-5 137 31z m79-388c0 0 0 0 0 0 1-1 3-2 4-3 22-23 22-59 0-82-23-22-59-22-82 0-1 1-2 2-3 4 0 0 0 0 0 0l-262 295 45 50 298-264z m-8 804c-7 7-19 7-26 0l-231-231c-36-36-47-89-31-136l-71-64-68 61c35 70 22 154-34 210-55 56-120 95-181 111-65 16-120 5-155-31s-47-90-31-155c16-61 55-126 111-181 56-56 140-69 210-34 0 0 67-75 68-76 3-4 8-6 13-6 4 0 8 1 12 4l160 142c6 6 7 14 4 21-17 37-10 80 19 109l231 231c7 7 7 18 0 25z m-425-489l-65 74c-6 6-15 8-23 3-57-35-131-27-179 21-51 51-87 110-101 165-13 52-5 94 21 121 27 26 69 34 121 21 55-14 114-50 165-101 48-48 56-122 21-179-5-8-3-17 3-23l76-68-39-34z" horiz-adv-x="1000" />

<glyph glyph-name="hotel" unicode="&#xe804;" d="M283 750h-33v50h-33v-133h33v50h33v-50h34v133h-34z m0 0m134 50h-67c-9 0-17-7-17-17v-100c0-9 8-16 17-16h67c9 0 16 7 16 16v100c0 10-7 17-16 17z m-17-100h-33v67h33z m0 0m50 67h33v-100h34v100h33v33h-100z m0 0m117 16v-100c0-9 7-16 16-16h84v33h-67v17h33v33h-33v17h67v33h-84c-9 0-16-7-16-17z m0 0m150 17h-34v-117c0-9 8-16 17-16h83v33h-66z m0 0m-534-183h634c9 0 16 7 16 16v200c0 10-7 17-16 17h-634c-9 0-16-7-16-17v-200c0-9 7-16 16-16z m17 200h600v-167h-600z m0 0m788-468l-221 64v70h33c9 0 17 8 17 17v67c0 9-8 16-17 16h-600c-9 0-17-7-17-16v-67c0-9 8-17 17-17h33v-70l-221-64c-7-2-12-8-12-16v-400c0-9 8-16 17-16h966c10 0 17 7 17 16v400c0 8-5 14-12 16z m-771 201h566v-33h-566z m-184-229l200 57v-428h-200z m550-238v-133h-166v133z m34-133v133h33v34h-300v-34h33v-133h-116v533h466v-533z m350 0h-200v428l200-57z m0 0m-84 350h34v-33h-34z m0 0m-66 0h33v-33h-33z m0 0m66-67h34v-33h-34z m0 0m-66 0h33v-33h-33z m0 0m66-66h34v-34h-34z m0 0m-66 0h33v-34h-33z m0 0m66-67h34v-33h-34z m0 0m-66 0h33v-33h-33z m0 0m-734 200h34v-33h-34z m0 0m67 0h33v-33h-33z m0 0m-67-67h34v-33h-34z m0 0m67 0h33v-33h-33z m0 0m-67-66h34v-34h-34z m0 0m67 0h33v-34h-33z m0 0m-67-67h34v-33h-34z m0 0m67 0h33v-33h-33z m0 0m367 317h33v-34h-33z m0 0m-67 0h33v-34h-33z m0 0m67-67h33v-33h-33z m0 0m-67 0h33v-33h-33z m0 0m67-67h33v-33h-33z m0 0m-67 0h33v-33h-33z m0 0m67-66h33v-34h-33z m0 0m-67 0h33v-34h-33z m0 0m-67 200h34v-34h-34z m0 0m-66 0h33v-34h-33z m0 0m66-67h34v-33h-34z m0 0m-66 0h33v-33h-33z m0 0m66-67h34v-33h-34z m0 0m-66 0h33v-33h-33z m0 0m66-66h34v-34h-34z m0 0m-66 0h33v-34h-33z m0 0m333 200h33v-34h-33z m0 0m-67 0h34v-34h-34z m0 0m67-67h33v-33h-33z m0 0m-67 0h34v-33h-34z m0 0m67-67h33v-33h-33z m0 0m-67 0h34v-33h-34z m0 0m67-66h33v-34h-33z m0 0m-67 0h34v-34h-34z m0 0" horiz-adv-x="1000" />

<glyph glyph-name="culture" unicode="&#xe805;" d="M994 693c-62 63-177 110-257 131-61 17-131 26-190 26-38 0-71-4-97-11-7-2-12-7-14-14-6-21-11-43-15-66 0-1 0-2 0-2-16-91-19-189-8-274-50-3-102-12-150-25-80-21-195-68-257-130-5-5-7-13-5-19 6-24 14-47 22-71 0 0 0 0 0 0 31-82 74-165 124-231 53-72 138-157 236-157 14 0 28 2 41 5 60 16 107 66 136 144 22 60 33 135 34 219 8-2 16-2 24-2 97 0 182 85 235 157 64 85 119 198 146 301 2 7 0 14-5 19z m-580-800c-10-3-21-4-31-4-64 0-137 50-205 142-45 59-85 133-113 208 10 8 27 20 45 32 9 6 11 18 5 27-6 9-18 12-27 6-14-10-27-19-37-27-3 10-7 21-9 31 48 43 139 88 231 112 47 13 98 21 146 24 6-32 15-62 25-88 0 0 0 0 0 0 1-3 2-5 3-8 0 0 0 0 0 0 6-13 12-25 18-35 0-1 0-1 0-1 0 0 0 0 0 0 1-1 1-1 2-2 0-1 1-2 2-4 0 0 1-1 1-2 2-2 3-4 4-5 0-1 1-2 1-3 2-1 3-3 4-5 0 0 1-1 1-2 2-1 3-3 4-5 0 0 1 0 1 0 2-4 5-7 8-10-12-14-30-23-49-23-23 0-43 12-55 31-5 9-17 12-26 7-10-5-13-17-7-27 18-31 51-50 88-50 30 0 58 13 77 36 7-5 13-9 20-13 0 0 1 0 1 0 2-1 4-2 5-3 1 0 1-1 2-1 2-1 4-1 5-2 1 0 1 0 1 0 1-147-36-308-141-336z m408 503c-68-91-141-141-204-141-11 0-22 1-32 4-2 0-4 1-6 2 0 0 0 0 0 0-84 27-115 141-126 207 0 0 0 0 0 0 0 1 0 2 0 4-13 80-11 176 3 265 13 2 34 4 55 6 11 1 19 10 18 21-1 11-10 19-21 18-16-1-32-3-44-5 1 9 3 18 6 27 21 5 47 7 76 7 56 0 122-9 180-25 92-24 183-69 232-113-28-95-78-198-137-277z m49 151c-18 32-51 51-88 51s-70-19-88-51c-5-9-2-21 7-26 10-6 22-3 27 7 11 19 32 31 54 31s43-12 55-31c3-7 10-10 16-10 4 0 7 1 10 3 10 5 13 17 7 26z m-290 108c-31 19-70 19-101 0-10-5-13-17-7-26 5-10 17-13 26-7 20 11 44 11 63 0 19-12 31-32 31-55 0-10 9-19 20-19 10 0 19 9 19 19 0 37-19 70-51 88z m128-248c-7 8-20 8-27 0-16-16-39-22-61-16-21 5-38 22-44 44-3 10-13 17-24 14-10-3-16-14-14-24 10-35 37-63 72-72 9-2 18-3 26-3 27 0 53 10 72 29 8 8 8 20 0 28z m-448-145h0c-11 0-20-9-20-20 0-22-12-43-31-54-20-11-44-11-63 0-9 5-21 2-26-7-6-10-3-21 7-27 15-9 33-13 50-13s36 4 51 13c32 18 51 52 51 88 0 11-9 20-19 20z m205-224c-25 26-63 36-98 27-35-10-62-37-72-72-3-11 4-22 14-24 2-1 3-1 5-1 9 0 17 6 19 15 6 21 23 38 44 44 22 6 45-1 61-16 7-8 20-8 27 0 8 7 8 20 0 27z m104 743c0 0-1 0-1 0-11 2-21-5-22-16-2-11 6-21 16-22l1 0c1-1 2-1 3-1 10 0 18 7 20 17 1 10-6 21-17 22z m-404-459c-4 10-15 15-25 11-1 0-1 0-2 0-10-4-14-15-10-25 3-8 10-13 18-13 2 0 5 1 7 2l1 0c10 4 15 15 11 25z" horiz-adv-x="1000" />

<glyph glyph-name="promo" unicode="&#xe806;" d="M990 171l-336 580c-7 14-20 24-35 28l-256 68c-8 3-17 3-26 3-1 0-1 0-2 0h-263c-32 0-60-20-69-51-6-19-3-41 8-58 11-18 28-30 49-33l95-16-52-52c-11-11-17-26-17-42v-670c0-43 35-78 78-78h363c22 0 43 9 58 25 1 0 1 0 2 0 7-2 14-3 20-3 14 0 27 4 39 11l315 181c18 11 31 28 36 48 6 20 3 41-7 59z m-924 576c-9 1-17 6-22 14-5 8-6 18-3 27 4 14 16 23 31 23h202l-85-85-123 21z m186-14l-5-17-11 2 16 15z m275-844h-308v172c0 11-9 19-20 19s-19-8-19-19v-172h-16c-21 0-39 18-39 39v670c0 6 2 10 6 14l72 72 34-6-38-142c-4-15-2-31 6-44l335-581c3-5 6-10 10-14-6-5-14-8-23-8z m433 233c-3-10-10-19-19-24l-314-182c-9-5-20-6-30-4-10 3-18 10-24 19l-335 580c-2 5-3 10-2 15l40 146 58-10c1-8 4-15 8-22 9-15 23-26 40-30 6-2 12-3 17-3 12 0 23 3 34 9 15 9 26 23 30 41 5 17 3 35-6 50-9 15-23 26-40 31-18 4-35 2-51-7-12-7-22-18-27-30l-53 8 19 73c3 10 9 19 18 24 6 3 13 5 20 5 3 0 7 0 10-1l148-40c0 0 0-1 1-1l94-164c4-6 10-10 17-10 4 0 7 1 10 3 9 5 13 17 7 27l-76 131 55-15c5-1 9-5 12-9l335-581c5-9 6-19 4-29z m-577 571l-3 0c2 2 4 3 6 4 4 3 9 4 13 4 3 0 5 0 7-1 7-2 13-6 17-13 4-6 5-13 3-20-2-7-7-13-13-17-6-4-14-5-21-3-4 2-8 4-12 7 0 0 0 0 0 0 10 0 18 7 20 16 1 11-6 21-17 23z m460-457c-18 33-60 44-93 25-33-19-44-61-25-93 12-22 35-35 59-35 12 0 24 3 34 10 16 9 28 23 32 41s3 36-7 52z m-30-42c-3-7-7-14-14-18-14-8-32-3-40 11-9 14-4 32 10 40 5 3 10 4 15 4 3 0 5 0 8-1 7-2 14-7 18-13 4-7 5-15 3-23z m-231 126c-9 16-24 27-42 32-18 5-36 2-52-7-16-9-27-24-32-41-5-18-2-37 7-52 13-22 36-35 60-35 11 0 23 3 34 10 16 9 27 23 32 41s2 36-7 52z m-31-42c-2-7-7-14-14-18-14-8-32-3-40 11-4 7-5 15-3 23 2 7 7 14 14 17 4 3 9 4 14 4 3 0 6 0 8-1 8-2 14-7 18-13 4-7 5-15 3-23z m95 110c-11 0-20-8-20-19v-289c0-11 9-20 20-20s19 9 19 20v289c0 11-9 19-19 19z m-433-213c-4 3-9 5-14 5s-10-2-14-5c-3-4-5-9-5-14 0-5 2-10 5-14 4-4 9-6 14-6s10 2 14 6c4 4 6 9 6 14 0 5-2 10-6 14z m464 367c-4 4-9 6-14 6-5 0-10-2-14-6-3-3-5-9-5-14 0-5 2-10 5-13 4-4 9-6 14-6 5 0 10 2 14 6 4 3 6 8 6 13s-2 10-6 14z" horiz-adv-x="1000" />

<glyph glyph-name="event" unicode="&#xe807;" d="M943 201c13 0 25 3 37 6 12 4 20 16 20 28v137c0 34-19 64-49 79-1 1-2 1-4 2-146 45-290 117-418 207v14h205c12 0 23 7 27 18 5 11 3 24-6 32l-38 38 38 38c9 8 11 21 6 32-4 11-15 18-27 18h-234c-16 0-29-13-29-29 0-20 0-143 0-161-128-90-272-162-418-207-19-6-53-34-53-81v-136c0-12 8-23 19-27 13-5 26-7 40-7v-72c0-83-20-165-56-238-4-9-4-20 1-28 6-9 15-14 25-14h942c10 0 19 5 25 14 5 8 5 19 1 28-36 73-56 155-56 238v72c1 0 1-1 2-1z m-414 590h135l-9-8c-5-6-8-13-8-21s3-15 8-21l9-8h-135v58z m-29-182c99-70 204-127 314-171h-628c110 44 215 101 314 171z m-366-700h-59c28 69 42 145 42 221v86c12 7 23 16 31 26 2-2 4-5 6-7 22-21 51-33 81-33-4-121-25-218-99-292l-2-1z m178 0h-100c65 89 80 196 82 307 12 7 23 15 32 25 21-24 53-40 88-40 18 0 35 5 51 12-17-114-70-221-151-303l-2-1z m79 0c49 58 86 126 109 198 23-72 60-140 109-198h-218z m297 0l-2 1c-81 82-135 190-151 305 16-9 35-14 54-14 35 0 67 16 88 40 8-9 18-17 29-23 2-104 13-217 81-309h-99z m176 0l-2 1c-79 79-94 186-97 291 0 0 0 0 0 0 35 0 67 16 88 41 2-2 4-5 6-7 8-6 15-12 24-17v-88c0-76 15-152 42-221h-61z m60 354c-1 1-2 1-3 1-23 9-39 30-39 55 0 16-13 29-29 29s-29-13-29-29c0-33-27-59-59-59s-58 26-58 59c0 16-14 29-30 29s-29-13-29-29c0-33-26-59-59-59s-58 26-58 59c0 16-13 29-29 29s-30-13-30-29c0-33-26-59-58-59s-59 26-59 59c0 16-13 29-29 29s-30-13-30-29c0-33-26-59-58-59-33 0-61 27-61 59 0 16-13 29-29 29s-29-13-29-29c0-33-27-59-59-59 0 0-1 0-1 0v112c0 3 0 5 0 7h882c0-2 0-4 0-7v-112c-6 0-12 1-17 3z" horiz-adv-x="1000" />

<glyph glyph-name="info" unicode="&#xe808;" d="M873 456l-331 331c-35 34-90 34-125 0-30-31-33-78-10-111l-1-3c-24-119-82-228-168-314l-152-152c-34-34-34-90 0-124l83-83c34-34 90-34 124 0l21 21 145-145c34-35 90-35 124 0 34 34 34 90 0 124l-62 62 21 21c34 34 34 90 0 124l-14 14c69 49 147 82 231 99l3 1c34-23 81-20 111 10h0c34 35 34 90 0 125z m-621-415c-12-11-30-11-42 0l-83 83c-11 12-11 30 0 42l145 145 125-125c-14-14-131-130-145-145z m290-82c11-12 11-30 0-42-12-11-30-11-42 0l-145 145 42 42 145-145z m-104 186c9 9 22 22 43 40l19-19c12-12 12-30 0-42l-20-20-42 41z m1 82l-126 126c68 79 116 171 142 272l256-256c-101-26-193-74-272-142z m393 146c-12-12-30-12-42 0l-331 331c-12 12-12 30 0 42 11 11 30 11 41 0l332-332c11-11 11-30 0-41z m-539-166c-11 12-30 12-41 0l-42-41c-11-12-11-30 0-42 12-11 30-11 42 0l41 42c12 11 12 30 0 41z m383 643c-16 0-29-13-29-29v-59c0-16 13-29 29-29s29 13 29 29v59c0 16-13 29-29 29z m235-234h-59c-16 0-29-13-29-30s13-29 29-29h59c16 0 29 13 29 29s-13 30-29 30z m-38 167c-12 11-30 11-42 0l-58-59c-12-11-12-30 0-41 11-12 30-12 41 0l59 58c11 12 11 30 0 42z" horiz-adv-x="1000" />

<glyph glyph-name="home" unicode="&#xe809;" d="M983 395l-151 151v175c0 32-26 58-58 58-31 0-57-26-57-58v-60l-113 113c-56 56-153 56-208 0l-379-379c-23-23-23-59 0-81 22-23 59-23 81 0l379 379c12 12 34 12 46 0l379-379c11-11 26-17 41-17 14 0 29 6 40 17 23 22 23 58 0 81z m-463 189c-11 11-29 11-40 0l-333-333c-5-6-8-13-8-20v-243c0-57 46-104 103-104h165v256h186v-256h165c57 0 103 47 103 104v243c0 7-2 14-8 20l-333 333z" horiz-adv-x="1000" />
</font>
</defs>
</svg>